3 Data Import and Export in Clinical Research – R for Clinical Data Analysis: From Fundamentals to Advanced Biostatistics
…
#> # A tibble: 1 × 5
#>   n_records n_subjects n_test_types n_visits date_range                         
#>       <int>      <int>        <int>    <int> <chr>                              
#> 1     59580        254           47       27 2012-06-29T14:30 to 2015-03-05T14:…

# View unique lab test types
unique_tests <- lb %>%
  distinct(LBTEST, LBCAT) %>%
  arrange(LBCAT, LBTEST)

print(unique_tests)

#> # A tibble: 47 × 2
#>    LBTEST                     LBCAT    
#>    <chr>                      <chr>    
#>  1 Alanine Aminotransferase   CHEMISTRY
#>  2 Albumin                    CHEMISTRY
#>  3 Alkaline Phosphatase       CHEMISTRY
#>  4 Aspartate Aminotransferase CHEMISTRY
#>  5 Bilirubin                  CHEMISTRY
#>  6 Blood Urea Nitrogen        CHEMISTRY
#>  7 Calcium                    CHEMISTRY
#>  8 Chloride                   CHEMISTRY
#>  9 Cholesterol                CHEMISTRY
#> 10 Creatine Kinase            CHEMISTRY
#> # ℹ 37 more rows
…
