4 Data Cleaning and Transformation in Clinical Research – R for Clinical Data Analysis: From Fundamentals to Advanced Biostatistics
…
#> Examples: 01-701-1015, 01-701-1023, 01-701-1028, 01-701-1033, 01-701-1034

# Examine the pattern of missing data
missing_pattern <- lb %>%
  group_by(LBTEST) %>%
  summarise(
    n_tests = n(),
    n_missing = sum(is.na(LBSTRESN)),
    pct_missing = 100 * mean(is.na(LBSTRESN))
  ) %>%
  arrange(desc(pct_missing))

print(missing_pattern)

#> # A tibble: 47 × 4
#>    LBTEST                     n_tests n_missing pct_missing
#>    <chr>                        <int>     <int>       <dbl>
#>  1 Color                          874       874    100     
#>  2 Bilirubin                     1814         5      0.276 
#>  3 Glucose                       1810         1      0.0552
#>  4 Alanine Aminotransferase      1814         0      0     
#>  5 Albumin                       1814         0      0     
#>  6 Alkaline Phosphatase          1824         0      0     
#>  7 Anisocytes                     158         0      0     
#>  8 Aspartate Aminotransferase    1814         0      0     
#>  9 Basophils                     1796         0      0     
#> 10 Basophils/Leukocytes            12         0      0     
#> # ℹ 37 more rows
…
# Statistical methods for outlier detection

# Method 1: Z-score (values > 3 SD are extreme)
glucose_outliers_zscore <- glucose_data %>%
  mutate(
    z_score = scale(LBSTRESN)[, 1],
    is_outlier = abs(z_score) > 3
  ) %>%
  filter(is_outlier)

print(glucose_outliers_zscore)

#> # A tibble: 40 × 25
#>    STUDYID  DOMAIN USUBJID LBSEQ LBTESTCD LBTEST LBCAT LBORRES LBORRESU LBORNRLO
#>    <chr>    <chr>  <chr>   <dbl> <chr>    <chr>  <chr> <chr>   <chr>    <chr>   
#>  1 CDISCPI… LB     01-701…    49 GLUC     Gluco… CHEM… 214     mg/dL    50      
#>  2 CDISCPI… LB     01-701…    68 GLUC     Gluco… CHEM… 301     mg/dL    50      
#>  3 CDISCPI… LB     01-704…    53 GLUC     Gluco… CHEM… 277     mg/dL    50      
#>  4 CDISCPI… LB     01-704…   111 GLUC     Gluco… CHEM… 420     mg/dL    50      
#>  5 CDISCPI… LB     01-704…   175 GLUC     Gluco… CHEM… 229     mg/dL    50      
#>  6 CDISCPI… LB     01-704…   205 GLUC     Gluco… CHEM… 282     mg/dL    50      
#>  7 CDISCPI… LB     01-704…   236 GLUC     Gluco… CHEM… 278     mg/dL    50      
#>  8 CDISCPI… LB     01-704…   271 GLUC     Gluco… CHEM… 267     mg/dL    50      
#>  9 CDISCPI… LB     01-704…    49 GLUC     Gluco… CHEM… 286     mg/dL    50      
#> 10 CDISCPI… LB     01-704…   106 GLUC     Gluco… CHEM… 315     mg/dL    50      
#> # ℹ 30 more rows
#> # ℹ 15 more variables: LBORNRHI <chr>, LBSTRESC <chr>, LBSTRESN <dbl>,
#> #   LBSTRESU <chr>, LBSTNRLO <dbl>, LBSTNRHI <dbl>, LBNRIND <chr>,
#> #   LBBLFL <chr>, VISITNUM <dbl>, VISIT <chr>, VISITDY <dbl>, LBDTC <chr>,
#> #   LBDY <dbl>, z_score <dbl>, is_outlier <lgl>
# Method 2: Interquartile range (IQR) rule
Q1 <- quantile(glucose_data$LBSTRESN, 0.25, na.rm = TRUE)
Q3 <- quantile(glucose_data$LBSTRESN, 0.75, na.rm = TRUE)
IQR <- Q3 - Q1

glucose_outliers_iqr <- glucose_data %>%
  filter(LBSTRESN < Q1 - 1.5 * IQR | LBSTRESN > Q3 + 1.5 * IQR)

cat("Outliers by IQR rule:", nrow(glucose_outliers_iqr), "\n")

#> Outliers by IQR rule: 161

print(glucose_outliers_iqr)

#> # A tibble: 161 × 23
#>    STUDYID  DOMAIN USUBJID LBSEQ LBTESTCD LBTEST LBCAT LBORRES LBORRESU LBORNRLO
#>    <chr>    <chr>  <chr>   <dbl> <chr>    <chr>  <chr> <chr>   <chr>    <chr>   
#>  1 CDISCPI… LB     01-701…   114 GLUC     Gluco… CHEM… 48      mg/dL    50      
#>  2 CDISCPI… LB     01-701…    16 GLUC     Gluco… CHEM… 149     mg/dL    50      
#>  3 CDISCPI… LB     01-701…   274 GLUC     Gluco… CHEM… 194     mg/dL    50      
#>  4 CDISCPI… LB     01-701…    16 GLUC     Gluco… CHEM… 185     mg/dL    50      
#>  5 CDISCPI… LB     01-701…    49 GLUC     Gluco… CHEM… 214     mg/dL    50      
#>  6 CDISCPI… LB     01-701…    68 GLUC     Gluco… CHEM… 301     mg/dL    50      
#>  7 CDISCPI… LB     01-701…   132 GLUC     Gluco… CHEM… 154     mg/dL    50      
#>  8 CDISCPI… LB     01-701…   288 GLUC     Gluco… CHEM… 148     mg/dL    50      
#>  9 CDISCPI… LB     01-701…   178 GLUC     Gluco… CHEM… 137     mg/dL    50      
#> 10 CDISCPI… LB     01-701…    94 GLUC     Gluco… CHEM… 145     mg/dL    50      
#> # ℹ 151 more rows
#> # ℹ 13 more variables: LBORNRHI <chr>, LBSTRESC <chr>, LBSTRESN <dbl>,
#> #   LBSTRESU <chr>, LBSTNRLO <dbl>, LBSTNRHI <dbl>, LBNRIND <chr>,
#> #   LBBLFL <chr>, VISITNUM <dbl>, VISIT <chr>, VISITDY <dbl>, LBDTC <chr>,
#> #   LBDY <dbl>

# Method 3: Clinical plausibility
# Reference ranges for glucose: 70-100 mg/dL (fasting), <140 mg/dL (non-fasting)
glucose_implausible <- glucose_data %>%
  filter(LBSTRESN < 40 | LBSTRESN > 500)  # Values outside any realistic range

cat("Clinically implausible values:", nrow(glucose_implausible), "\n")

#> Clinically implausible values: 1809

print(glucose_implausible)

#> # A tibble: 1,809 × 23
#>    STUDYID  DOMAIN USUBJID LBSEQ LBTESTCD LBTEST LBCAT LBORRES LBORRESU LBORNRLO
#>    <chr>    <chr>  <chr>   <dbl> <chr>    <chr>  <chr> <chr>   <chr>    <chr>   
#>  1 CDISCPI… LB     01-701…    17 GLUC     Gluco… CHEM… 85      mg/dL    50      
#>  2 CDISCPI… LB     01-701…    54 GLUC     Gluco… CHEM… 84      mg/dL    50      
#>  3 CDISCPI… LB     01-701…    88 GLUC     Gluco… CHEM… 79      mg/dL    50      
#>  4 CDISCPI… LB     01-701…   118 GLUC     Gluco… CHEM… 92      mg/dL    50      
#>  5 CDISCPI… LB     01-701…   148 GLUC     Gluco… CHEM… 82      mg/dL    50      
#>  6 CDISCPI… LB     01-701…   179 GLUC     Gluco… CHEM… 87      mg/dL    50      
#>  7 CDISCPI… LB     01-701…   213 GLUC     Gluco… CHEM… 86      mg/dL    50      
#>  8 CDISCPI… LB     01-701…   243 GLUC     Gluco… CHEM… 88      mg/dL    50      
#>  9 CDISCPI… LB     01-701…   274 GLUC     Gluco… CHEM… 81      mg/dL    50      
#> 10 CDISCPI… LB     01-701…   308 GLUC     Gluco… CHEM… 92      mg/dL    50      
#> # ℹ 1,799 more rows
#> # ℹ 13 more variables: LBORNRHI <chr>, LBSTRESC <chr>, LBSTRESN <dbl>,
#> #   LBSTRESU <chr>, LBSTNRLO <dbl>, LBSTNRHI <dbl>, LBNRIND <chr>,
#> #   LBBLFL <chr>, VISITNUM <dbl>, VISIT <chr>, VISITDY <dbl>, LBDTC <chr>,
#> #   LBDY <dbl>
…
# Count standardized terms
ae_summary <- ae_clean %>%
  group_by(AETERM) %>%
  summarise(
    N_EVENTS = n(),
    N_SUBJECTS = n_distinct(USUBJID),
    .groups = "drop"
  ) %>%
  arrange(desc(N_EVENTS))

print(ae_summary)

#> # A tibble: 242 × 3
#>    AETERM                      N_EVENTS N_SUBJECTS
#>    <chr>                          <int>      <int>
#>  1 PRURITUS                          84         57
#>  2 APPLICATION SITE PRURITUS         78         50
#>  3 ERYTHEMA                          59         38
#>  4 APPLICATION SITE ERYTHEMA         46         30
#>  5 RASH                              45         29
#>  6 APPLICATION SITE IRRITATION       41         21
#>  7 APPLICATION SITE DERMATITIS       36         21
#>  8 DIZZINESS                         34         22
#>  9 SKIN IRRITATION                   25         14
#> 10 SINUS BRADYCARDIA                 24         17
#> # ℹ 232 more rows
…
