34 End-to-End Clinical Trial Analysis – R for Clinical Data Analysis: From Fundamentals to Advanced Biostatistics
…
cat("\nVisit Completeness by Arm:\n")

#> 
#> Visit Completeness by Arm:

print(visit_completeness)

#> # A tibble: 43 × 5
#>    VISIT               ARM                  N_with_data N_total Pct_complete
#>    <chr>               <chr>                      <int>   <int>        <dbl>
#>  1 AMBUL ECG PLACEMENT Placebo                       74      74          100
#>  2 AMBUL ECG PLACEMENT Xanomeline High Dose          66      66          100
#>  3 AMBUL ECG PLACEMENT Xanomeline Low Dose           66      66          100
#>  4 AMBUL ECG REMOVAL   Placebo                       72      72          100
#>  5 AMBUL ECG REMOVAL   Xanomeline High Dose          60      60          100
#>  6 AMBUL ECG REMOVAL   Xanomeline Low Dose           58      58          100
#>  7 RETRIEVAL           Placebo                        5       5          100
#>  8 RETRIEVAL           Xanomeline High Dose          11      11          100
#>  9 RETRIEVAL           Xanomeline Low Dose           20      20          100
#> 10 SCREENING 1         Placebo                       86      86          100
#> # ℹ 33 more rows
…
cat("ADSL Dataset Completeness:\n")

#> ADSL Dataset Completeness:

cat("===========================\n")

#> ===========================

print(adsl_completeness)

#> # A tibble: 22 × 4
#>    Variable Non_Missing Total Pct_Complete
#>    <chr>          <int> <int>        <dbl>
#>  1 USUBJID          254   254          100
#>  2 ARMCD            254   254          100
#>  3 ARM              254   254          100
#>  4 TRT01P           254   254          100
#>  5 TRT01PN          254   254          100
#>  6 AGE              254   254          100
#>  7 AGEGRP           254   254          100
#>  8 SEX              254   254          100
#>  9 SEXF             254   254          100
#> 10 RACE             254   254          100
#> # ℹ 12 more rows
…
