18 Multivariate Methods in Clinical Research – R for Clinical Data Analysis: From Fundamentals to Advanced Biostatistics
…
cat("Blood Pressure Trajectories by Visit and ARM:\n")

#> Blood Pressure Trajectories by Visit and ARM:

print(sysbp_trajectory)

#> # A tibble: 46 × 6
#>    ARM     VISITNUM     N Mean_SYSBP SD_SYSBP SE_SYSBP
#>    <chr>      <dbl> <int>      <dbl>    <dbl>    <dbl>
#>  1 Placebo      1     258       140.     19.3     1.20
#>  2 Placebo      2     249       136.     16.9     1.07
#>  3 Placebo      3     255       137.     17.8     1.12
#>  4 Placebo      3.1     3       165.     13.0     7.51
#>  5 Placebo      3.5   222       136.     16.6     1.11
#>  6 Placebo      4     252       134.     17.8     1.12
#>  7 Placebo      5     246       134.     17.6     1.12
#>  8 Placebo      6     216       132.     16.2     1.10
#>  9 Placebo      7     228       134.     18.3     1.21
#> 10 Placebo      8     219       136.     17.2     1.16
#> # ℹ 36 more rows
…
